<?xml version="1.0" encoding="utf-8"?>
<!-- Generator: Adobe Illustrator 21.1.0, SVG Export Plug-In . SVG Version: 6.00 Build 0)  -->
<svg version="1.1" id="Layer_1" xmlns="http://www.w3.org/2000/svg" xmlns:xlink="http://www.w3.org/1999/xlink" x="0px" y="0px"
	 viewBox="0 0 9.9 18.4" style="enable-background:new 0 0 9.9 18.4;" xml:space="preserve">
<polygon points="0,9.2 8.8,0 9.9,1 2.1,9.2 9.9,17.4 8.8,18.4 "/>
</svg>
