<?xml version="1.0" encoding="utf-8"?>
<!-- Generator: Adobe Illustrator 21.1.0, SVG Export Plug-In . SVG Version: 6.00 Build 0)  -->
<svg version="1.1" id="Layer_1" xmlns="http://www.w3.org/2000/svg" xmlns:xlink="http://www.w3.org/1999/xlink" x="0px" y="0px"
	 viewBox="0 0 24 24" style="enable-background:new 0 0 24 24;" xml:space="preserve">
<g>
	<path d="M22.3,23.7l-22-22l1.4-1.4l22,22L22.3,23.7z"/>
</g>
<g>
	<path d="M23.7,1.7l-22,22l-1.4-1.4l22-22L23.7,1.7z"/>
</g>
</svg>
