<?xml version="1.0" encoding="utf-8"?>
<!-- Generator: Adobe Illustrator 21.1.0, SVG Export Plug-In . SVG Version: 6.00 Build 0)  -->
<svg version="1.1" id="Layer_1" xmlns="http://www.w3.org/2000/svg" xmlns:xlink="http://www.w3.org/1999/xlink" x="0px" y="0px"
	 viewBox="0 0 1014 155" style="enable-background:new 0 0 1014 155;" xml:space="preserve">
<style type="text/css">
	.st0{fill:#867650;}
</style>
<path id="Shape_1_copy" class="st0" d="M194.4,20.6c-9.1,10.6-17.1,29.6-3,59.9c8,17.1,8,31.2-0.1,41.9
	c-7.9,10.6-22.2,15.5-29.4,16.1l2.1,16.2c13.6-1.2,33.3-9.2,44.2-23.8c7.8-10.5,14.5-28.8,1.7-56.2c-8.7-18.6-8.5-34.1,0.6-44.7
	c8.3-9.6,21.7-12.9,28.9-12.8L240,0.9C226,0.7,206.4,6.7,194.4,20.6z M415.6,20.6c-9.1,10.6-17.1,29.6-3,59.9
	c8,17.1,8,31.2-0.1,41.9c-7.9,10.6-22.2,15.5-29.4,16.1l2.1,16.2c13.6-1.2,33.3-9.2,44.2-23.8c7.8-10.5,14.5-28.8,1.7-56.2
	c-8.7-18.6-8.5-34.1,0.6-44.7c8.3-9.6,21.8-12.9,28.9-12.8l0.4-16.3C447.2,0.7,427.6,6.7,415.6,20.6z M299.6,153.4h19.9V1.8h-19.9
	V153.4z M726.5,105.6c0,29.9-14.4,33.9-28.5,33.9s-28.5-4-28.5-33.9V1.8h-18.9v103.8c0,22.5,8.2,49.4,47.4,49.4s47.4-26.9,47.4-49.4
	V1.8h-18.9L726.5,105.6L726.5,105.6z M542.4,1.8h-19.9V155h77.3v-16.3h-57.5V1.8z M990,24.2c5.5-4.6,13.7-7.1,23.5-7.1V0.9
	c-19.3,0-31.1,6.5-37.7,12c-8.3,6.9-13,16.5-13,26.3c0.1,9.2,4.2,17.9,11.2,23.8c0.7,0.6,1.6,1.3,2.5,2c-6.6,3.8-12.2,9-16.4,15.3
	c-11.4,17.2-10.6,40.1,1.8,55.7c9.9,12.4,25.6,19.1,44.6,19.1c1.9,0,3.8-0.1,5.7-0.2l-1.6-16.2c-14.2,0.9-25.3-3-32.1-11.6
	c-8.5-10.7-8.9-27.1-1-39c4.4-6.6,13-14.4,29.1-14.4V57.3c-17.8,0-24.1-9.8-24.1-18.1C982.8,33.3,985.5,27.9,990,24.2z M902.5,1.1
	h-19.2c0,23-11.7,33.5-27.8,46.7c-0.5,0.4-1,0.8-1.5,1.2c-0.5-0.4-1-0.8-1.5-1.2C836.4,34.6,824.7,24,824.7,1.1h-19.2
	c0,29.5,17,44.4,33.5,57.8c0.6,0.5,1.2,1,1.8,1.5c0,0,0,0,0,0c3.8,3.1,7.8,6.5,11.7,10.1c16.3,15.4,30.8,38.2,30.8,84.3h19.2
	c0-51.3-17.1-77.3-35.3-94.4c0.6-0.5,1.2-1,1.8-1.5C885.5,45.4,902.5,30.6,902.5,1.1L902.5,1.1z M805.5,154.7h19.2
	c0-33.3,7.5-54.8,17.9-69.5c-4.3-4.3-8.8-8.4-13.5-12.2C815.9,89.8,805.5,114.7,805.5,154.7L805.5,154.7z"/>
<path class="st0" d="M75,105.7c1.9,0,2.6,1.2,2.6,3.1c0,2.9-2.8,7.4-11.3,8.9C68,112,71.6,105.7,75,105.7z"/>
<g>
	<path class="st0" d="M0,1v154h103V1H0z M55.5,118.7c0,7.9-8,13.3-19.6,13.3H18.1l0.5-1.9c1.5-0.1,3-0.3,4.5-0.6
		c1.3-0.5,2.3-1.6,2.6-2.9l8.2-29.6c0.1-0.5,0.2-0.9,0.2-1.4c0-0.7-0.5-1.4-1.2-1.6c-1.3-0.5-2.6-0.8-4-1l0.5-1.9h18
		c6.4,0,10.6,2.6,10.6,7.6c0,6.5-5.9,9.4-12.1,11v0.5C51.1,111.1,55.5,113.5,55.5,118.7z M69.7,130.1c4.4,0,7-3.5,9.1-7.7l1.8,0.8
		c-3.7,7.1-8.1,9.5-12,9.5c-4.3,0-9.2-2-9.2-9.6c0-6.5,6.1-19.4,17.3-19.4c2.7,0,5,1.4,5,4.3c0,7.2-10,10.5-15.9,11.4
		c-0.4,1.7-0.7,3.4-0.7,5.2C65.1,128.5,66.6,130.1,69.7,130.1z"/>
	<path class="st0" d="M35.8,111.6l-4,14.5c-0.4,2.7,1.1,3.7,4.6,3.7c8.3,0,12.7-5.4,12.7-10.9h0c0-4.7-3.7-7.4-9.3-7.4
		C38.7,111.4,37,111.5,35.8,111.6z"/>
	<path class="st0" d="M51.7,99.2L51.7,99.2c0-4-2.4-5.9-6.7-5.9c-1.3,0-2.6,0.1-4.1,0.1l-4.4,15.8h2.2
		C46.8,109.2,51.7,104.4,51.7,99.2z"/>
</g>
</svg>
